{
    "#          ": "   Don't tweak this file unless you know what you are doing.                                                      ",
    "##         ": "   This file is tweaked automatically by the CI/CD infrastructure                                                 ",
    "###        ": "   whenever the project is getting built (via .gitlab-ci.yml in particular)                                       ",
    "####       ": "                                                                                                                  ",
    "#####      ": "   to generate a new service key pay a visit over to                                                              ",
    "######     ": "                                                                                                                  ",
    "#######    ": "   quizer-dev    https://console.firebase.google.com/u/1/project/quizer-d6b60/settings/serviceaccounts/adminsdk   ",
    "########   ": "   quizer-prod   https://console.firebase.google.com/u/1/project/qu1z3r/settings/serviceaccounts/adminsdk         ",
    "#########  ": "                                                                                                                  ",
    "type": "service_account",
    "auth_uri": "https://accounts.google.com/o/oauth2/auth",
    "token_uri": "https://oauth2.googleapis.com/token",
    "auth_provider_x509_cert_url": "https://www.googleapis.com/oauth2/v1/certs",
    "client_id": "fill this in using the adminsdk",
    "project_id": "fill this in using the adminsdk",
    "private_key": "fill this in using the adminsdk",
    "client_email": "fill this in using the adminsdk",
    "private_key_id": "fill this in using the adminsdk",
    "client_x509_cert_url": "fill this in using the adminsdk"
}
